tt_20211207_spiders.R
…
## The following objects are masked from 'package:stats':
## 
##     filter, lag

## The following objects are masked from 'package:base':
## 
##     intersect, setdiff, setequal, union

library(ggplot2)

# Explore the data
spiders %>%
  dplyr::count(family, genus, sort = T)

## # A tibble: 4,232 x 3
##    family         genus           n
##    <chr>          <chr>       <int>
##  1 Theridiidae    Theridion     585
##  2 Araneidae      Araneus       570
##  3 Lycosidae      Pardosa       535
##  4 Clubionidae    Clubiona      517
##  5 Gnaphosidae    Zelotes       396
##  6 Pholcidae      Pholcus       361
##  7 Tetragnathidae Tetragnatha   323
##  8 Dysderidae     Dysdera       294
##  9 Thomisidae     Xysticus      293
## 10 Oxyopidae      Oxyopes       290
## # ... with 4,222 more rows
…
